Midterm
…
utterance
0
1
9.80
5.94
1
5
9
14
30

slice(friendsEMO)

## # A tibble: 12,606 x 5
##    season episode scene utterance emotion
##     <dbl>   <dbl> <dbl>     <dbl> <chr>  
##  1      1       1     4         1 Mad    
##  2      1       1     4         3 Neutral
##  3      1       1     4         4 Joyful 
##  4      1       1     4         5 Neutral
##  5      1       1     4         6 Neutral
##  6      1       1     4         7 Neutral
##  7      1       1     4         8 Scared 
##  8      1       1     4        10 Joyful 
##  9      1       1     4        11 Joyful 
## 10      1       1     4        12 Sad    
## #  with 12,596 more rows
…
Bonus points (5 points) for datasets that require merging of tables, but only if you reason through whether you should use left_join, inner_join, or right_join on these tables. No credit will be provided if you dont.

Left_join adds columns to the right even if they do not have values in few rows for the conditions I am joining them. Inner_join returns rows when both merging tables have maching values.I am using left_join here because to me it is more intuitive (I have a table I like I want to add columns in that table). However, I did test inner_join and it does not give a different row numbers, and also I want the emotional responses for the rows with character names and no emotional response value would have been no use for this project.

Show your transformed table here. Use tools such as glimpse(), skim() or head() to illustrate your point.

slice(friendsMERGE)

## # A tibble: 12,606 x 3
##    season emotion speaker       
##     <dbl> <chr>   <chr>         
##  1      1 Mad     Ross Geller   
##  2      1 Neutral Joey Tribbiani
##  3      1 Joyful  Chandler Bing 
##  4      1 Neutral Joey Tribbiani
##  5      1 Neutral Chandler Bing 
##  6      1 Neutral Joey Tribbiani
##  7      1 Scared  Chandler Bing 
##  8      1 Joyful  Joey Tribbiani
##  9      1 Joyful  Chandler Bing 
## 10      1 Sad     Ross Geller   
## #  with 12,596 more rows
…
## `summarise()` has grouped output by 'speaker', 'emotion'. You can override using the `.groups` argument.

glimpse(friendsFinal)

## Rows: 96
## Columns: 4
## Groups: speaker, emotion [24]
## $ speaker  <chr> "Chandler Bing", "Chandler Bing", "Chandler Bing", "Chandler
## $ emotion  <chr> "Joyful", "Joyful", "Joyful", "Joyful", "Mad", "Mad", "Mad",
## $ season   <dbl> 1, 2, 3, 4, 1, 2, 3, 4, 1, 2, 3, 4, 1, 2, 3, 4, 1, 2, 3, 4, 
## $ EmoCount <int> 96, 92, 103, 96, 57, 57, 63, 41, 20, 17, 39, 65, 17, 18, 18,

slice(friendsFinal)

## # A tibble: 96 x 4
## # Groups:   speaker, emotion [24]
##    speaker       emotion  season EmoCount
##    <chr>         <chr>     <dbl>    <int>
##  1 Chandler Bing Joyful        1       96
##  2 Chandler Bing Joyful        2       92
##  3 Chandler Bing Joyful        3      103
##  4 Chandler Bing Joyful        4       96
##  5 Chandler Bing Mad           1       57
##  6 Chandler Bing Mad           2       57
##  7 Chandler Bing Mad           3       63
##  8 Chandler Bing Mad           4       41
##  9 Chandler Bing Powerful      1       20
## 10 Chandler Bing Powerful      2       17
## #  with 86 more rows
…
