Midterm
…
#Joining the table
food <- food_consumption %>%
  left_join(y=continents,by=("country"="country")) %>%
  left_join(y=pop_fixed,by=("country"="country")) %>%
  filter(year=="2013") %>%
  select(-c("year"))

Lisa did the data cleaning and transformation. We decided to go with population data from the year 2013 because it was most recent.

To start fixing the NAs, we first have to find which countries produce NAs for continent.

food %>%
  filter(is.na(Continent)) 

## # A tibble: 99 x 6
##    country food_category          consumption co2_emmission Continent population
##    <chr>   <fct>                        <dbl>         <dbl> <fct>          <int>
##  1 USA     Pork                         27.6          97.8  <NA>       320050716
##  2 USA     Poultry                      50.0          53.7  <NA>       320050716
##  3 USA     Beef                         36.2        1118.   <NA>       320050716
##  4 USA     Lamb & Goat                   0.43         15.1  <NA>       320050716
##  5 USA     Fish                         12.4          19.7  <NA>       320050716
##  6 USA     Eggs                         14.6          13.4  <NA>       320050716
##  7 USA     Milk - inc. cheese          255.          363.   <NA>       320050716
##  8 USA     Wheat and Wheat Produ       80.4          15.3  <NA>       320050716
##  9 USA     Rice                          6.88          8.8  <NA>       320050716
## 10 USA     Soybeans                      0.04          0.02 <NA>       320050716
## #  with 89 more rows
…
