Midterm
…
Visualizing and Summarizing the Data (15 points)

Use group_by()/summarize() to make a summary of the data here. The summary should be relevant to your research question

mean_county_mmr <- measles_OR %>%
  group_by(county) %>%
  summarize(mean_mmr = mean(mmr, na.rm = TRUE)) %>%
  arrange(desc(mean_mmr))

## `summarise()` ungrouping output (override with `.groups` argument)

mean_county_mmr

## # A tibble: 36 x 2
##    county     mean_mmr
##    <chr>         <dbl>
##  1 Morrow         98.4
##  2 Malheur        98.1
##  3 Umatilla       97.4
##  4 Gilliam        96.9
##  5 Lake           96.7
##  6 Washington     96.5
##  7 Tillamook      96.4
##  8 Lincoln        96.3
##  9 Wasco          96.2
## 10 Linn           96.2
## #  with 26 more rows
…
