Midterm
…
Summarizing the Data

Use group_by()/summarize() to make a summary of the data here. The summary should be relevant to your research question

Summary by Device Type

totInj <- sum(parks$num_injured)
parks_summary_DCat <- parks %>% group_by(device_category) %>% summarise(sInj = sum(num_injured), pInj = round(sInj/totInj, 3) * 100) %>% arrange(desc(pInj)) %>% ungroup

## `summarise()` ungrouping output (override with `.groups` argument)

parks_summary_DCat

## # A tibble: 21 x 3
##    device_category     sInj  pInj
##    <fct>              <dbl> <dbl>
##  1 water slide         1690  19.2
##  2 coaster             1218  13.9
##  3 spinning            1070  12.2
##  4 trampoline           698   7.9
##  5 cars & track rides   661   7.5
##  6 go-kart              648   7.4
##  7 water ride           540   6.1
##  8 inflatable           489   5.6
##  9 challenge activity   367   4.2
## 10 aquatic play         337   3.8
## #  with 11 more rows
…
## `summarise()` ungrouping output (override with `.groups` argument)

## # A tibble: 21 x 3
##    device_category     sInj  pInj
##    <fct>              <dbl> <dbl>
##  1 trampoline           558 29.3 
##  2 water slide          285 14.9 
##  3 coaster              208 10.9 
##  4 aquatic play         166  8.7 
##  5 spinning             153  8   
##  6 inflatable            88  4.6 
##  7 water ride            76  4   
##  8 cars & track rides    62  3.3 
##  9 go-kart               56  2.9 
## 10 play equipment        42  2.20
## #  with 11 more rows
…
