Midterm
…
Use group_by()/summarize() to make a summary of the data here. The summary should be relevant to your research question

cpu %>% 
  group_by(designer) %>%
  summarize(number_chips = n(),
            median_density = round(median(density), digits=2),
            median_transistor_count = round(median(transistor_count), digits = 2),
            year_introduced = min(date_of_introduction),
            last_year = max(date_of_introduction)) %>% 
  arrange(median_density)

## `summarise()` ungrouping output (override with `.groups` argument)

## # A tibble: 28 x 6
##    designer number_chips median_density median_transist year_introduced
##    <chr>           <int>          <dbl>            <dbl>           <dbl>
##  1 Toshiba             1           87.5             2800            1973
##  2 RCA                 1          185.              5000            1976
##  3 MOS Tec            1          216.              4528            1975
##  4 Zilog               1          472.              8500            1976
##  5 Texas I            1          727.              8000            1974
##  6 WDC                 2         2181.             16750            1981
##  7 Acorn               4         2232.             69000            1985
##  8 Motorola            7         2235.            190000            1974
##  9 DEC WRL             1         2951.            180000            1988
## 10 MIPS                1         6338.           1350000            1991
## #  with 18 more rows, and 1 more variable: last_year <dbl>
…
